{
  "navigationBarBackgroundColor": "#ffffff",
  "navigationBarTextStyle": "black",
  "navigationBarTitleText": "登录",
  "backgroundColor": "#fff",
  "backgroundTextStyle": "dark",
  "navigationStyle": "custom"
  
}