{
  "usingComponents": {},
  "navigationBarBackgroundColor": "#ffffff",
  "navigationBarTextStyle": "black",
  "navigationBarTitleText": "添加/编辑人员信息",
  "backgroundColor": "#eeeeee",
  "backgroundTextStyle": "light"
}